[
  {
    "employeeId": "16a596ae-edd3-4847-99fe-c4518e82c86f",
    "salary": "1000000.00",
    "effectiveDate": "2021-01-22T09:00:00.000Z"
  },
  {
    "employeeId": "b7839309-3348-463b-a7e3-5de1c168beb3",
    "salary": "1000000.00",
    "effectiveDate": "2021-01-22T09:00:00.000Z"
  },
  {
    "employeeId": "03aa1462-ffa9-4978-901b-7c001562cf6f",
    "salary": "1000000.00",
    "effectiveDate": "2021-01-22T09:00:00.000Z"
  },
  {
    "employeeId": "62c1084e-6e34-4630-93fd-9153afb65309",
    "salary": "1000000.00",
    "effectiveDate": "2021-01-22T09:00:00.000Z"
  },
  {
    "employeeId": "c0c2293d-16bd-4603-8e08-638a9d18b22c",
    "salary": "1000000.00",
    "effectiveDate": "2021-01-22T09:00:00.000Z"
  }
]